--------------------------------------Старт обновления: 02.09.2021 15:02:52
Получение данных!
Очистка таблиц
Добавление данных
Сохранение изменений!
--------------------------------------База обновлена: 02.09.2021 15:16:39
--------------------------------------Старт обновления: 03.09.2021 9:12:02
Получение данных!
Очистка таблиц
Добавление данных
Сохранение изменений!
--------------------------------------База обновлена: 03.09.2021 9:24:55
--------------------------------------Старт обновления: 03.09.2021 11:30:33
Получение данных!
Очистка таблиц
Добавление данных
Сохранение изменений!
--------------------------------------Старт обновления: 03.09.2021 11:52:22
Получение данных!
Очистка таблиц
Добавление данных
Сохранение изменений!
--------------------------------------База обновлена: 03.09.2021 12:06:05
--------------------------------------Старт обновления: 06.09.2021 9:41:35
Получение данных!
Очистка таблиц
Добавление данных
Сохранение изменений!
--------------------------------------База обновлена: 06.09.2021 9:55:53
--------------------------------------Старт обновления: 06.09.2021 13:34:58
Получение данных!
Очистка таблиц
Добавление данных
Сохранение изменений!
--------------------------------------База обновлена: 06.09.2021 13:52:11
--------------------------------------Старт обновления: 08.09.2021 9:34:46
Получение данных!
Очистка таблиц
Добавление данных
Сохранение изменений!
--------------------------------------База обновлена: 08.09.2021 9:48:55
--------------------------------------Старт обновления: 08.09.2021 14:18:07
Получение данных!
Очистка таблиц
Добавление данных
Сохранение изменений!
--------------------------------------База обновлена: 08.09.2021 14:33:11
--------------------------------------Старт обновления: 08.09.2021 16:12:44
Получение данных!
Очистка таблиц
Добавление данных
Сохранение изменений!
--------------------------------------База обновлена: 08.09.2021 16:27:18
--------------------------------------Старт обновления: 08.09.2021 18:14:58
Получение данных!
--------------------------------------Старт обновления: 08.09.2021 18:15:40
Получение данных!
Очистка таблиц
Добавление данных
Сохранение изменений!
--------------------------------------База обновлена: 08.09.2021 18:28:38
--------------------------------------Старт обновления: 09.09.2021 9:00:00
Получение данных!
Очистка таблиц
Добавление данных
Сохранение изменений!
--------------------------------------База обновлена: 09.09.2021 9:13:01
--------------------------------------Старт обновления: 09.09.2021 9:54:00
Получение данных!
Очистка таблиц
Добавление данных
Сохранение изменений!
--------------------------------------База обновлена: 09.09.2021 10:07:30
--------------------------------------Старт обновления: 09.09.2021 12:01:58
Получение данных!
Очистка таблиц
Добавление данных
Сохранение изменений!
--------------------------------------Старт обновления: 09.09.2021 13:28:50
Получение данных!
Очистка таблиц
Добавление данных
Сохранение изменений!
--------------------------------------База обновлена: 09.09.2021 13:43:10
--------------------------------------Старт обновления: 10.09.2021 13:37:21
Получение данных!
--------------------------------------Старт обновления: 10.09.2021 13:38:43
Получение данных!
Очистка таблиц
Добавление данных
Сохранение изменений!
--------------------------------------База обновлена: 10.09.2021 13:54:08
Скрипт запущен: 10.09.2021 16:51:16
--------------------------------------Старт обновления: 10.09.2021 16:51:17
Получение данных!
Очистка таблиц
Добавление данных
Сохранение изменений!
--------------------------------------База обновлена: 10.09.2021 17:07:37
Скрипт запущен: 13.09.2021 10:30:36
--------------------------------------Старт обновления: 13.09.2021 10:30:36
Текущий операционный день - 13.09.2021 0:00:00
Получение данных!
Очистка таблиц
Добавление данных
Сохранение изменений!
--------------------------------------База обновлена: 13.09.2021 10:45:13


Скрипт запущен: 14.09.2021 12:16:24
--------------------------------------Старт обновления: 14.09.2021 12:16:24
Текущий операционный день - 14.09.2021 0:00:00
Получение данных!
Очистка таблиц
Добавление данных
Сохранение изменений!
--------------------------------------База обновлена: 14.09.2021 12:31:57


Скрипт запущен: 14.09.2021 13:23:59
--------------------------------------Старт обновления: 14.09.2021 13:23:59
Текущий операционный день - 14.09.2021 0:00:00
Получение данных!
Очистка таблиц
Добавление данных
Сохранение изменений!
--------------------------------------База обновлена: 14.09.2021 13:40:03


Скрипт запущен: 14.09.2021 14:17:03
--------------------------------------Старт обновления: 14.09.2021 14:17:04
Текущий операционный день - 14.09.2021 0:00:00
Получение данных!
Очистка таблиц
Добавление данных
Сохранение изменений!
--------------------------------------База обновлена: 14.09.2021 14:33:33


Скрипт запущен: 14.09.2021 17:20:47
Скрипт запущен: 14.09.2021 17:23:04
Скрипт запущен: 14.09.2021 17:24:24
--------------------------------------Старт обновления: 14.09.2021 17:25:34
Получение данных!
Очистка таблиц
Добавление данных
Сохранение изменений!
--------------------------------------База обновлена: 14.09.2021 17:41:40


Скрипт запущен: 14.09.2021 17:44:52
Скрипт запущен: 14.09.2021 17:46:35
Скрипт запущен: 14.09.2021 17:47:52
--------------------------------------Старт обновления: 14.09.2021 17:48:14
Получение данных!
Очистка таблиц
Добавление данных
Сохранение изменений!
--------------------------------------База обновлена: 14.09.2021 18:03:22


Скрипт запущен: 16.09.2021 10:25:44
--------------------------------------Старт обновления: 16.09.2021 10:25:58
Получение данных!
Очистка таблиц
Добавление данных
Сохранение изменений!
--------------------------------------База обновлена: 16.09.2021 10:42:12


Скрипт запущен: 22.09.2021 11:34:14
--------------------------------------Старт обновления: 22.09.2021 11:34:29
Получение данных!
Скрипт запущен: 22.09.2021 16:07:55
Скрипт запущен: 22.09.2021 16:09:19
Скрипт запущен: 22.09.2021 16:10:07
Скрипт запущен: 22.09.2021 16:13:36
Скрипт запущен: 22.09.2021 16:14:42
--------------------------------------Старт обновления: 22.09.2021 16:14:56
Получение данных!
Очистка таблиц
Добавление данных
Сохранение изменений!
--------------------------------------База обновлена: 22.09.2021 16:31:54


Скрипт запущен: 08.10.2021 10:51:56
--------------------------------------Старт обновления: 08.10.2021 10:52:10
Скрипт запущен: 08.10.2021 10:57:42
Скрипт запущен: 08.10.2021 11:00:42
--------------------------------------Старт обновления: 08.10.2021 11:01:02
Скрипт запущен: 08.10.2021 11:07:19
Скрипт запущен: 08.10.2021 11:09:00
